03-Logica-Combinacional/testes/resultados/tb_and16.vcd
$date
  Tue Aug 22 20:59:53 2017
$end
$version
  GHDL v0
$end
$timescale
  1 fs
$end
$var reg 1 ! check_enabled $end
$comment runner is not handled $end
$var reg 16 " ina[15:0] $end
$var reg 16 # inb[15:0] $end
$var reg 16 $ outq[15:0] $end
$var reg 1 % clk $end
$scope module mapping $end
$var reg 16 & a[15:0] $end
$var reg 16 ' b[15:0] $end
$var reg 16 ( q[15:0] $end
$upscope $end
$enddefinitions $end
#0
1!
b1111000011110000 "
b0000111100001111 #
b0000000000000000 $
0%
b1111000011110000 &
b0000111100001111 '
b0000000000000000 (
#500000
b1010101010101010 "
b0000000000000000 #
1%
b1010101010101010 &
b0000000000000000 '
#1000000
0%
#1500000
b0101010101010101 "
1%
b0101010101010101 &
#2000000
0%
#2500000
b0000000000000000 "
b1010101010101010 #
1%
b0000000000000000 &
b1010101010101010 '
#3000000
0%
#3500000
b0101010101010101 #
1%
b0101010101010101 '
#4000000
0%
#4500000
b1111111111111111 "
b1111111111111111 #
b1111111111111111 $
1%
b1111111111111111 &
b1111111111111111 '
b1111111111111111 (
#5000000
0%
#5500000
b0000000000000000 "
b0000000000000000 #
b0000000000000000 $
1%
b0000000000000000 &
b0000000000000000 '
b0000000000000000 (
#6000000
0%
#6500000
b0101010101010101 "
b0101010101010101 #
b0101010101010101 $
1%
b0101010101010101 &
b0101010101010101 '
b0101010101010101 (
#7000000
0%
#7500000
b1010101010101010 "
b1010101010101010 #
b1010101010101010 $
1%
b1010101010101010 &
b1010101010101010 '
b1010101010101010 (
