03-Logica-Combinacional/testes/resultados/tb_barrelshifter8.vcd
$date
  Tue Aug 22 20:59:53 2017
$end
$version
  GHDL v0
$end
$timescale
  1 fs
$end
$var reg 1 ! check_enabled $end
$comment runner is not handled $end
$var reg 8 " ina[7:0] $end
$var reg 8 # outq[7:0] $end
$var reg 1 $ indir $end
$var reg 3 % insize[2:0] $end
$var reg 1 & clk $end
$scope module mapping $end
$var reg 8 ' a[7:0] $end
$var reg 1 ( dir $end
$var reg 3 ) size[2:0] $end
$var reg 8 * q[7:0] $end
$upscope $end
$enddefinitions $end
#0
1!
b00000010 "
b00000010 #
0$
b000 %
0&
b00000010 '
0(
b000 )
b00000010 *
#500000
b00000100 #
b001 %
1&
b001 )
b00000100 *
#1000000
0&
#1500000
b00001000 #
b010 %
1&
b010 )
b00001000 *
#2000000
0&
#2500000
b00010000 #
b011 %
1&
b011 )
b00010000 *
#3000000
0&
#3500000
b00100000 #
b100 %
1&
b100 )
b00100000 *
#4000000
0&
#4500000
b01000000 "
b01000000 #
1$
b000 %
1&
b01000000 '
1(
b000 )
b01000000 *
#5000000
0&
#5500000
b00100000 #
b001 %
1&
b001 )
b00100000 *
#6000000
0&
#6500000
b00010000 #
b010 %
1&
b010 )
b00010000 *
#7000000
0&
#7500000
b00001000 #
b011 %
1&
b011 )
b00001000 *
#8000000
0&
#8500000
b00000100 #
b100 %
1&
b100 )
b00000100 *
