03-Logica-Combinacional/testes/resultados/tb_nor8way.vcd
$date
  Tue Aug 22 20:59:53 2017
$end
$version
  GHDL v0
$end
$timescale
  1 fs
$end
$var reg 1 ! check_enabled $end
$comment runner is not handled $end
$var reg 1 " ina $end
$var reg 1 # inb $end
$var reg 1 $ inc $end
$var reg 1 % ind $end
$var reg 1 & ine $end
$var reg 1 ' inf $end
$var reg 1 ( ing $end
$var reg 1 ) inh $end
$var reg 1 * outq $end
$var reg 1 + clk $end
$scope module mapping $end
$var reg 1 , a $end
$var reg 1 - b $end
$var reg 1 . c $end
$var reg 1 / d $end
$var reg 1 0 e $end
$var reg 1 1 f $end
$var reg 1 2 g $end
$var reg 1 3 h $end
$var reg 1 4 q $end
$upscope $end
$enddefinitions $end
#0
1!
0"
0#
0$
0%
0&
0'
0(
0)
1*
0+
0,
0-
0.
0/
00
01
02
03
14
#500000
1)
0*
1+
13
04
#1000000
0+
#1500000
1(
0)
1+
12
03
#2000000
0+
#2500000
1'
0(
1+
11
02
#3000000
0+
#3500000
1&
0'
1+
10
01
#4000000
0+
#4500000
1%
0&
1+
1/
00
#5000000
0+
#5500000
1$
0%
1+
1.
0/
#6000000
0+
#6500000
1#
0$
1+
1-
0.
#7000000
0+
#7500000
1"
0#
1+
1,
0-
#8000000
0+
#8500000
1#
1$
1%
1&
1'
1(
1)
1+
1-
1.
1/
10
11
12
13
