03-Logica-Combinacional/testBench/waves/tb_barrelshifter16.vcd
$date
  Wed Aug 30 08:00:18 2017
$end
$version
  GHDL v0
$end
$timescale
  1 fs
$end
$var reg 1 ! check_enabled $end
$comment runner is not handled $end
$var reg 16 " ina[15:0] $end
$var reg 16 # outq[15:0] $end
$var reg 1 $ indir $end
$var reg 3 % insize[2:0] $end
$var reg 1 & clk $end
$scope module mapping $end
$var reg 16 ' a[15:0] $end
$var reg 1 ( dir $end
$var reg 3 ) size[2:0] $end
$var reg 16 * q[15:0] $end
$upscope $end
$enddefinitions $end
#0
1!
b0000000000000010 "
b0000000000000010 #
0$
b000 %
0&
b0000000000000010 '
0(
b000 )
b0000000000000010 *
#500000
b0000000000000100 #
b001 %
1&
b001 )
b0000000000000100 *
#1000000
0&
#1500000
b0000000000001000 #
b010 %
1&
b010 )
b0000000000001000 *
#2000000
0&
#2500000
b0000000000010000 #
b011 %
1&
b011 )
b0000000000010000 *
#3000000
0&
#3500000
b0000000000100000 #
b100 %
1&
b100 )
b0000000000100000 *
#4000000
0&
#4500000
b0100000000000000 "
b0100000000000000 #
1$
b000 %
1&
b0100000000000000 '
1(
b000 )
b0100000000000000 *
#5000000
0&
#5500000
b0010000000000000 #
b001 %
1&
b001 )
b0010000000000000 *
#6000000
0&
#6500000
b0001000000000000 #
b010 %
1&
b010 )
b0001000000000000 *
#7000000
0&
#7500000
b0000100000000000 #
b011 %
1&
b011 )
b0000100000000000 *
#8000000
0&
#8500000
b0000010000000000 #
b100 %
1&
b100 )
b0000010000000000 *
