03-Logica-Combinacional/testBench/waves/tb_dmux4way.vcd
$date
  Wed Aug 30 08:00:17 2017
$end
$version
  GHDL v0
$end
$timescale
  1 fs
$end
$var reg 1 ! check_enabled $end
$comment runner is not handled $end
$var reg 1 " ina $end
$var reg 1 # outq0 $end
$var reg 1 $ outq1 $end
$var reg 1 % outq2 $end
$var reg 1 & outq3 $end
$var reg 2 ' insel[1:0] $end
$var reg 1 ( clk $end
$scope module mapping $end
$var reg 1 ) a $end
$var reg 2 * sel[1:0] $end
$var reg 1 + q0 $end
$var reg 1 , q1 $end
$var reg 1 - q2 $end
$var reg 1 . q3 $end
$upscope $end
$enddefinitions $end
#0
1!
1"
1#
0$
0%
0&
b00 '
0(
1)
b00 *
1+
0,
0-
0.
#500000
0#
1$
b01 '
1(
b01 *
0+
1,
#1000000
0(
#1500000
0$
1%
b10 '
1(
b10 *
0,
1-
#2000000
0(
#2500000
0%
1&
b11 '
1(
b11 *
0-
1.
#3000000
0(
#3500000
0"
0&
b00 '
1(
0)
b00 *
0.
#4000000
0(
#4500000
b01 '
1(
b01 *
#5000000
0(
#5500000
b10 '
1(
b10 *
#6000000
0(
#6500000
b11 '
1(
b11 *
