03-Logica-Combinacional/testBench/waves/tb_mux8way.vcd
$date
  Wed Aug 30 08:00:19 2017
$end
$version
  GHDL v0
$end
$timescale
  1 fs
$end
$var reg 1 ! check_enabled $end
$comment runner is not handled $end
$var reg 1 " ina $end
$var reg 1 # inb $end
$var reg 1 $ inc $end
$var reg 1 % ind $end
$var reg 1 & ine $end
$var reg 1 ' inf $end
$var reg 1 ( ing $end
$var reg 1 ) inh $end
$var reg 1 * outq $end
$var reg 3 + insel[2:0] $end
$var reg 1 , clk $end
$scope module mapping $end
$var reg 1 - a $end
$var reg 1 . b $end
$var reg 1 / c $end
$var reg 1 0 d $end
$var reg 1 1 e $end
$var reg 1 2 f $end
$var reg 1 3 g $end
$var reg 1 4 h $end
$var reg 3 5 sel[2:0] $end
$var reg 1 6 q $end
$upscope $end
$enddefinitions $end
#0
1!
1"
0#
1$
0%
1&
0'
1(
0)
1*
b000 +
0,
1-
0.
1/
00
11
02
13
04
b000 5
16
#500000
0*
b001 +
1,
b001 5
06
#1000000
0,
#1500000
1*
b010 +
1,
b010 5
16
#2000000
0,
#2500000
0*
b011 +
1,
b011 5
06
#3000000
0,
#3500000
1*
b100 +
1,
b100 5
16
#4000000
0,
#4500000
0*
b101 +
1,
b101 5
06
#5000000
0,
#5500000
1*
b110 +
1,
b110 5
16
#6000000
0,
#6500000
0*
b111 +
1,
b111 5
06
#7000000
0,
#7500000
0"
1#
0$
1%
0&
1'
0(
1)
b000 +
1,
0-
1.
0/
10
01
12
03
14
b000 5
#8000000
0,
#8500000
1*
b001 +
1,
b001 5
16
#9000000
0,
#9500000
0*
b010 +
1,
b010 5
06
#10000000
0,
#10500000
1*
b011 +
1,
b011 5
16
#11000000
0,
#11500000
0*
b100 +
1,
b100 5
06
#12000000
0,
#12500000
1*
b101 +
1,
b101 5
16
#13000000
0,
#13500000
0*
b110 +
1,
b110 5
06
#14000000
0,
#14500000
1*
b111 +
1,
b111 5
16
